{
    "key": "group_57a192380ca47",
    "title": "Google",
    "fields": [
        {
            "key": "field_57a1923b5ec49",
            "label": "API key",
            "name": "google_api_key",
            "type": "text",
            "instructions": "It may be necessary to register a Google API key in order to allow the Google API to load correctly. Please follow <a target=\"_blank\" href=\"https:\/\/developers.google.com\/maps\/documentation\/javascript\/get-api-key\">this link<\/a> to get a Google API key.",
            "required": 0,
            "conditional_logic": 0,
            "wrapper": {
                "width": "",
                "class": "",
                "id": ""
            },
            "default_value": "",
            "placeholder": "",
            "prepend": "",
            "append": "",
            "maxlength": "",
            "readonly": 0,
            "disabled": 0
        }
    ],
    "location": [
        [
            {
                "param": "options_page",
                "operator": "==",
                "value": "options-theme-general"
            }
        ]
    ],
    "menu_order": 0,
    "position": "normal",
    "style": "default",
    "label_placement": "top",
    "instruction_placement": "label",
    "hide_on_screen": "",
    "active": 1,
    "description": "",
    "modified": 1470206616
}